module github.com/DeusFerrariis/go-rest-api

go 1.22.1

require (
	github.com/charmbracelet/lipgloss v0.10.0
	github.com/charmbracelet/log v0.4.0
	github.com/go-chi/chi/v5 v5.0.12
	github.com/go-playground/validator/v10 v10.19.0
	github.com/labstack/echo/v4 v4.12.0
	github.com/mattn/go-sqlite3 v1.14.22
	github.com/nicklaw5/go-respond v1.6.0
	github.com/urfave/negroni v1.0.0
)

require (
	github.com/aymanbagabas/go-osc52/v2 v2.0.1 // indirect
	github.com/davecgh/go-spew v1.1.1 // indirect
	github.com/gabriel-vasile/mimetype v1.4.3 // indirect
	github.com/go-logfmt/logfmt v0.6.0 // indirect
	github.com/go-playground/locales v0.14.1 // indirect
	github.com/go-playground/universal-translator v0.18.1 // indirect
	github.com/golang-jwt/jwt v3.2.2+incompatible // indirect
	github.com/labstack/gommon v0.4.2 // indirect
	github.com/leodido/go-urn v1.4.0 // indirect
	github.com/lucasb-eyer/go-colorful v1.2.0 // indirect
	github.com/mattn/go-colorable v0.1.13 // indirect
	github.com/mattn/go-isatty v0.0.20 // indirect
	github.com/mattn/go-runewidth v0.0.15 // indirect
	github.com/muesli/reflow v0.3.0 // indirect
	github.com/muesli/termenv v0.15.2 // indirect
	github.com/pmezard/go-difflib v1.0.0 // indirect
	github.com/rivo/uniseg v0.4.7 // indirect
	github.com/stretchr/testify v1.9.0 // indirect
	github.com/valyala/bytebufferpool v1.0.0 // indirect
	github.com/valyala/fasttemplate v1.2.2 // indirect
	golang.org/x/crypto v0.22.0 // indirect
	golang.org/x/exp v0.0.0-20231006140011-7918f672742d // indirect
	golang.org/x/net v0.24.0 // indirect
	golang.org/x/sys v0.19.0 // indirect
	golang.org/x/text v0.14.0 // indirect
	golang.org/x/time v0.5.0 // indirect
	gopkg.in/yaml.v3 v3.0.1 // indirect
)
